-------------------------------------------------------------------------------
Test set: unit.MessageServiceTests
-------------------------------------------------------------------------------
Tests run: 8, Failures: 0, Errors: 3, Skipped: 0, Time elapsed: 0.032 s <<< FAILURE! - in unit.MessageServiceTests
new_messages_on_request_for_unread(unit.MessageServiceTests)  Time elapsed: 0.001 s  <<< ERROR!
java.lang.NullPointerException
	at unit.MessageServiceTests.new_messages_on_request_for_unread(MessageServiceTests.java:96)

valid_add_message_request(unit.MessageServiceTests)  Time elapsed: 0 s  <<< ERROR!
java.lang.NullPointerException
	at unit.MessageServiceTests.valid_add_message_request(MessageServiceTests.java:71)

empty_new_messages_on_request_for_unread(unit.MessageServiceTests)  Time elapsed: 0 s  <<< ERROR!
java.lang.NullPointerException
	at unit.MessageServiceTests.empty_new_messages_on_request_for_unread(MessageServiceTests.java:86)

